💧 ETo Calculation Based on FAO-56 Penman-Monteith • BrazilMet
…
This article demonstrates how to use the BrazilMet package to compute
reference evapotranspiration (ETo) based on the FAO-56 Penman-Monteith
method, using weather data from INMET automatic stations.

📦 Load the package

library(BrazilMet)

🌍 View available INMET stations

Before downloading data, you can check the available weather stations
with:

see_stations_info()
#> # A tibble: 564 × 8
#>    station_municipality uf    situation_operation latitude_degrees
#>    <chr>                <chr> <chr>                          <dbl>
#>  1 Abrolhos             BA    breakdown                     -18.0 
#>  2 Acarau               CE    breakdown                      -3.12
#>  3 Afonso Claudio       ES    operating                     -20.1 
#>  4 Agua Boa             MT    operating                     -14.0 
#>  5 Agua Clara           MS    operating                     -20.4 
#>  6 Aguas Emendadas      DF    operating                     -15.6 
#>  7 Aguas Vermelhas      MG    operating                     -15.8 
#>  8 Aimores              MG    operating                     -19.5 
#>  9 Alegre               ES    operating                     -20.8 
#> 10 Alegrete             RS    operating                     -29.7 
#> # ℹ 554 more rows
#> # ℹ 4 more variables: longitude_degrees <dbl>, altitude_m <dbl>,
#> #   operation_start_date <dttm>, station_code <chr>
…
